[

	[ "Id", "Playfield", "X", "Y", "Z", "HeadingX", "HeadingY", "HeadingZ", "HeadingW", "Name", "TemplateId", "Hash" ],

	[ 77332492, 1180, 197, 5, 203, 0, 0.707108, 0, 0.707106, "", 90562, "TraCB" ],
	[ 77332491, 1180, 197, 5, 199, 0, 0.707108, 0, 0.707106, "", 90564, "SolCB" ],
	[ 77332480, 1180, 197, 5.00014, 207, 0, 0.707108, 0, 0.707106, "", 90589, "AdvCB" ],
	[ 77332481, 1180, 201, 5.00014, 209, 0, 1, 0, -0.00000361999, "", 90588, "AgeCB" ],
	[ 77332482, 1180, 205, 5.00004, 209, 0, 1, 0, -0.00000361999, "", 90587, "BurCB" ],
	[ 77332483, 1180, 209, 5.00005, 209, 0, 1, 0, -0.00000361999, "", 90586, "DocCB" ],
	[ 77332484, 1180, 213, 5.00011, 209, 0, 1, 0, -0.00000361999, "", 90585, "EnfCB" ],
	[ 77332485, 1180, 217, 5, 207, 0, -0.707103, 0, 0.707111, "", 90579, "EngCB" ],
	[ 77332486, 1180, 217, 5.00054, 203, 0, -0.707103, 0, 0.707111, "", 90576, "FixCB" ],
	[ 77332490, 1180, 217, 5, 199, 0, -0.707103, 0, 0.707111, "", 90567, "NanCB" ],
	[ 77332488, 1180, 217, 5.00021, 195, 0, -0.707103, 0, 0.707111, "", 90571, "MarCB" ],
	[ 77332489, 1180, 213, 5.0002, 193, 0, 0, 0, 1, "", 90569, "MetCB" ],
	[ 77332487, 1180, 209, 5, 193, 0, 0, 0, 1, "", 90574, "GenCB" ],
	[ 77398029, 1181, 177, 5, 167, 0, 0.707108, 0, 0.707106, "", 93043, "SolCA" ],
	[ 77398028, 1181, 209, 5, 177, 0, 1, 0, -0.00000149012, "", 93041, "TraCA" ],
	[ 77398027, 1181, 205, 5, 177, 0, 1, 0, -0.00000149012, "", 93043, "SolCA" ],
	[ 77398026, 1181, 205, 5, 157, 0, 0.00000599027, 0, 1, "", 93044, "NanCA" ],
	[ 77398025, 1181, 199, 5.0002, 161, 0, 0.707107, 0, 0.707107, "", 93047, "MetCA" ],
	[ 77398024, 1181, 201, 5.00021, 157, 0, 0.00000599027, 0, 1, "", 93049, "MarCA" ],
	[ 77398023, 1181, 199, 5, 165, 0, 0.707107, 0, 0.707107, "", 90574, "GenCB" ],
	[ 77398022, 1181, 209, 5.00054, 157, 0, 0.00000599027, 0, 1, "", 93050, "FixCA" ],
	[ 77398021, 1181, 213, 5, 157, 0, 0.00000599027, 0, 1, "", 93053, "EngCA" ],
	[ 77398020, 1181, 215, 5.00011, 161, 0, -0.707104, 0, 0.707109, "", 93055, "EnfCA" ],
	[ 77398019, 1181, 215, 5.00005, 165, 0, -0.707104, 0, 0.707109, "", 93057, "DocCA" ],
	[ 77398018, 1181, 215, 5.00004, 169, 0, -0.707104, 0, 0.707109, "", 93058, "BurCA" ],
	[ 77398017, 1181, 215, 5.00014, 173, 0, -0.707104, 0, 0.707109, "", 93061, "AgeCA" ],
	[ 77398016, 1181, 213, 5.00014, 177, 0, 1, 0, -0.00000149012, "", 93062, "AdvCA" ],
	[ 77791237, 1187, 215, 5.00101, 129.5, 0, -0.707103, 0, 0.707111, "", 152008, "MedA" ],
	[ 77791238, 1187, 215, 5.00101, 131.5, 0, -0.707103, 0, 0.707111, "", 152012, "MedS" ],
	[ 77725712, 1186, 166.622, 5.001, 129.145, 0, 0.707107, 0, 0.707106, "", 99574, "MedB" ],
	[ 77791246, 1187, 195, 5.00089, 129, 0, 0.707108, 0, 0.707105, "", 151982, "AtkS" ],
	[ 77791245, 1187, 195, 5.00094, 131, 0, 0.707108, 0, 0.707105, "", 151981, "AtkA" ],
	[ 77725710, 1186, 169.413, 5.001, 116.65, 0, 0.00000711563, 0, 1, "", 99602, "AtkB" ],
	[ 77791248, 1187, 198, 5.00073, 127, 0, 0.00000711563, 0, 1, "", 155601, "BkStS" ],
	[ 77791247, 1187, 200, 5.00072, 127, 0, 0.00000711563, 0, 1, "", 155600, "BkStA" ],
	[ 77725717, 1186, 180.752, 5.00103, 116.678, 0, 0, 0, 1, "", 155599, "BkStB" ],
	[ 77791236, 1187, 215, 5.00101, 131.5, 0, -0.707103, 0, 0.707111, "", 152012, "ToolS" ],
	[ 77791235, 1187, 215, 5.00101, 129.5, 0, -0.707103, 0, 0.707111, "", 152008, "ToolA" ],
	[ 77725713, 1186, 183.311, 5.00003, 129.355, 0, -0.707102, 0, 0.707111, "", 99601, "ToolB" ],
	[ 77791233, 1187, 212, 5.001, 127, 0, 0, 0, 1, "", 99634, "ContG" ]
]